my experimental quarto blog - set_na_where(): a nonstandard evaluation use case
…
library(dplyr)
library(ggplot2)
library(rlang)
# the data is bundled with an R package I wrote
# devtools::install_github("tjmahr/fillgaze")

df <- system.file("test-gaze.csv", package = "fillgaze") %>% 
  readr::read_csv() %>% 
  mutate(Time = Time - min(Time)) %>% 
  select(Time:REyeCoordY) %>% 
  round(3) %>% 
  mutate_at(vars(Time), round, 1) %>% 
  mutate_at(vars(GazeX, GazeY), round, 0)
df
#> # A tibble: 14,823 × 8
#>     Time Trial GazeX GazeY LEyeCoordX LEyeCoordY REyeCoordX REyeCoordY
#>    <dbl> <dbl> <dbl> <dbl>      <dbl>      <dbl>      <dbl>      <dbl>
#>  1   0       1  1176   643      0.659      0.589      0.566      0.602
#>  2   3.5     1 -1920 -1080     -1         -1         -1         -1    
#>  3  20.2     1 -1920 -1080     -1         -1         -1         -1    
#>  4  36.8     1  1184   648      0.664      0.593      0.57       0.606
#>  5  40       1  1225   617      0.685      0.564      0.591      0.579
#>  6  56.7     1 -1920 -1080     -1         -1         -1         -1    
#>  7  73.4     1  1188   641      0.665      0.587      0.572      0.6  
#>  8  76.6     1  1204   621      0.674      0.568      0.58       0.582
#>  9  93.3     1 -1920 -1080     -1         -1         -1         -1    
#> 10 110.      1  1189   665      0.666      0.609      0.572      0.622
#> # ℹ 14,813 more rows
…
  for (col in names(set_to_na)) {
    data[set_to_na[[col]], col] <- NA
  }
  
  data
}

results <- set_na_where(
  data = df,
  GazeX = GazeX < -500 | 2200 < GazeX, 
  GazeY = GazeY < -200 | 1200 < GazeY
)
results
#> # A tibble: 14,823 × 8
#>     Time Trial GazeX GazeY LEyeCoordX LEyeCoordY REyeCoordX REyeCoordY
#>    <dbl> <dbl> <dbl> <dbl>      <dbl>      <dbl>      <dbl>      <dbl>
#>  1   0       1  1176   643      0.659      0.589      0.566      0.602
#>  2   3.5     1    NA    NA     -1         -1         -1         -1    
#>  3  20.2     1    NA    NA     -1         -1         -1         -1    
#>  4  36.8     1  1184   648      0.664      0.593      0.57       0.606
#>  5  40       1  1225   617      0.685      0.564      0.591      0.579
#>  6  56.7     1    NA    NA     -1         -1         -1         -1    
#>  7  73.4     1  1188   641      0.665      0.587      0.572      0.6  
#>  8  76.6     1  1204   621      0.674      0.568      0.58       0.582
#>  9  93.3     1    NA    NA     -1         -1         -1         -1    
#> 10 110.      1  1189   665      0.666      0.609      0.572      0.622
#> # ℹ 14,813 more rows
…
